Procesador_V2.1b/dump.vcd
$date
	Wed Aug 23 01:00:52 2023
$end
$version
	Icarus Verilog
$end
$timescale
	1ps
$end
$scope module RV32nexpo_tb $end
$var wire 32 ! D_instr [31:0] $end
$var wire 32 " D_pc [31:0] $end
$var wire 32 # E_pc [31:0] $end
$var wire 32 $ F_pc [31:0] $end
$var wire 1 % Fl_D $end
$var wire 1 & Fl_E $end
$var wire 1 ' Fl_M $end
$var wire 1 ( Fl_W $end
$var wire 1 ) Fwd_rs1_M $end
$var wire 1 * Fwd_rs1_W $end
$var wire 1 + Fwd_rs2_M $end
$var wire 1 , Fwd_rs2_W $end
$var wire 1 - JoB $end
$var wire 32 . PC [31:0] $end
$var wire 1 / St_D $end
$var wire 1 0 St_E $end
$var wire 1 1 St_F $end
$var wire 1 2 St_M $end
$var wire 1 3 end_prog $end
$var wire 1 4 error $end
$var wire 32 5 mem_address [31:0] $end
$var wire 4 6 mem_mask [3:0] $end
$var wire 32 7 mem_out [31:0] $end
$var wire 1 8 mem_read $end
$var wire 1 9 mem_write $end
$var reg 32 : E_instr [31:0] $end
$var reg 32 ; M_instr [31:0] $end
$var reg 32 < M_pc [31:0] $end
$var reg 32 = W_instr [31:0] $end
$var reg 32 > W_pc [31:0] $end
$var reg 1 ? _RST $end
$var reg 1 @ clk $end
$var integer 32 A i [31:0] $end
$var reg 32 B instr [31:0] $end
$var reg 32 C leds [31:0] $end
$var reg 32 D mem_in [31:0] $end
$var reg 1 E rst $end
$scope function riscv_disasm_Bimm $end
$var reg 32 F instr [31:0] $end
$var reg 32 G riscv_disasm_Bimm [31:0] $end
$upscope $end
$scope function riscv_disasm_Iimm $end
$var reg 32 H instr [31:0] $end
$var reg 32 I riscv_disasm_Iimm [31:0] $end
$upscope $end
$scope function riscv_disasm_Jimm $end
$var reg 32 J instr [31:0] $end
$var reg 32 K riscv_disasm_Jimm [31:0] $end
$upscope $end
$scope function riscv_disasm_Simm $end
$var reg 32 L instr [31:0] $end
$var reg 32 M riscv_disasm_Simm [31:0] $end
$upscope $end
$scope function riscv_disasm_Uimm $end
$var reg 32 N instr [31:0] $end
$var reg 32 O riscv_disasm_Uimm [31:0] $end
$upscope $end
$scope function riscv_disasm_Uimm_raw $end
$var reg 32 P instr [31:0] $end
$var reg 20 Q riscv_disasm_Uimm_raw [19:0] $end
$upscope $end
$scope function riscv_disasm_csrId $end
$var reg 32 R I [31:0] $end
$var reg 2 S riscv_disasm_csrId [1:0] $end
$upscope $end
$scope function riscv_disasm_funct3 $end
$var reg 32 T I [31:0] $end
$var reg 3 U riscv_disasm_funct3 [2:0] $end
$upscope $end
$scope function riscv_disasm_funct7 $end
$var reg 32 V I [31:0] $end
$var reg 7 W riscv_disasm_funct7 [6:0] $end
$upscope $end
$scope function riscv_disasm_isALUimm $end
$var reg 32 X I [31:0] $end
$var reg 1 Y riscv_disasm_isALUimm $end
$upscope $end
$scope function riscv_disasm_isALUreg $end
$var reg 32 Z I [31:0] $end
$var reg 1 [ riscv_disasm_isALUreg $end
$upscope $end
$scope function riscv_disasm_isAUIPC $end
$var reg 32 \ I [31:0] $end
$var reg 1 ] riscv_disasm_isAUIPC $end
$upscope $end
$scope function riscv_disasm_isBranch $end
$var reg 32 ^ I [31:0] $end
$var reg 1 _ riscv_disasm_isBranch $end
$upscope $end
$scope function riscv_disasm_isJAL $end
$var reg 32 ` I [31:0] $end
$var reg 1 a riscv_disasm_isJAL $end
$upscope $end
$scope function riscv_disasm_isJALR $end
$var reg 32 b I [31:0] $end
$var reg 1 c riscv_disasm_isJALR $end
$upscope $end
$scope function riscv_disasm_isLUI $end
$var reg 32 d I [31:0] $end
$var reg 1 e riscv_disasm_isLUI $end
$upscope $end
$scope function riscv_disasm_isLoad $end
$var reg 32 f I [31:0] $end
$var reg 1 g riscv_disasm_isLoad $end
$upscope $end
$scope function riscv_disasm_isRV32M $end
$var reg 32 h I [31:0] $end
$var reg 1 i riscv_disasm_isRV32M $end
$upscope $end
$scope function riscv_disasm_isSYSTEM $end
$var reg 32 j I [31:0] $end
$var reg 1 k riscv_disasm_isSYSTEM $end
$upscope $end
$scope function riscv_disasm_isStore $end
$var reg 32 l I [31:0] $end
$var reg 1 m riscv_disasm_isStore $end
$upscope $end
$scope function riscv_disasm_rdId $end
$var reg 32 n I [31:0] $end
$var reg 5 o riscv_disasm_rdId [4:0] $end
$upscope $end
$scope function riscv_disasm_readsRs1 $end
$var reg 32 p I [31:0] $end
$var reg 1 q riscv_disasm_readsRs1 $end
$upscope $end
$scope function riscv_disasm_readsRs2 $end
$var reg 32 r I [31:0] $end
$var reg 1 s riscv_disasm_readsRs2 $end
$upscope $end
$scope function riscv_disasm_rs1Id $end
$var reg 32 t I [31:0] $end
$var reg 5 u riscv_disasm_rs1Id [4:0] $end
$upscope $end
$scope function riscv_disasm_rs2Id $end
$var reg 32 v I [31:0] $end
$var reg 5 w riscv_disasm_rs2Id [4:0] $end
$upscope $end
$scope function riscv_disasm_shamt $end
$var reg 32 x I [31:0] $end
$var reg 5 y riscv_disasm_shamt [4:0] $end
$upscope $end
$scope module uut $end
$var wire 1 z D_ALUFun $end
$var wire 32 { D_Bimm [31:0] $end
$var wire 32 | D_Iimm [31:0] $end
$var wire 32 } D_Jimm [31:0] $end
$var wire 32 ~ D_Simm [31:0] $end
$var wire 32 !" D_Uimm [31:0] $end
$var wire 3 "" D_funct3 [2:0] $end
$var wire 1 #" D_funct3ZERO $end
$var wire 8 $" D_funct7 [7:0] $end
$var wire 1 %" D_isALUimm $end
$var wire 1 &" D_isALUreg $end
$var wire 1 '" D_isAUIPC $end
$var wire 1 (" D_isBRANCH $end
$var wire 1 )" D_isCSR $end
$var wire 1 *" D_isEBREAK $end
$var wire 1 +" D_isFENCE $end
$var wire 1 ," D_isJAL $end
$var wire 1 -" D_isJALR $end
$var wire 1 ." D_isLOAD $end
$var wire 1 /" D_isLUI $end
$var wire 1 0" D_isSTORE $end
$var wire 1 1" D_isSYSTEM $end
$var wire 8 2" D_opcode [7:0] $end
$var wire 5 3" D_rd [4:0] $end
$var wire 1 4" D_rdNoZero $end
$var wire 5 5" D_rs1 [4:0] $end
$var wire 32 6" D_rs1Data [31:0] $end
$var wire 1 7" D_rs1Read $end
$var wire 5 8" D_rs2 [4:0] $end
$var wire 32 9" D_rs2Data [31:0] $end
$var wire 1 :" D_rs2Read $end
$var wire 32 ;" E_ALUin1 [31:0] $end
$var wire 32 <" E_ALUin2 [31:0] $end
$var wire 32 =" E_ALUout [31:0] $end
$var wire 32 >" E_JumpAddr [31:0] $end
$var wire 1 ?" E_JumpOrBranch $end
$var wire 1 @" E_M_fwd_rs1 $end
$var wire 1 A" E_M_fwd_rs2 $end
$var wire 1 B" E_TakeBranch $end
$var wire 1 C" E_W_fwd_rs1 $end
$var wire 1 D" E_W_fwd_rs2 $end
$var wire 32 E" E_pcMas4 [31:0] $end
$var wire 32 F" E_pcMasImm [31:0] $end
$var wire 32 G" E_rs1Data [31:0] $end
$var wire 32 H" E_rs2Data [31:0] $end
$var wire 32 I" FD_instr [31:0] $end
$var wire 32 J" F_pcMas4 [31:0] $end
$var wire 1 K" Flush_D $end
$var wire 1 L" Flush_E $end
$var wire 1 M" Flush_M $end
$var wire 1 N" Flush_W $end
$var wire 32 O" InstrAddr [31:0] $end
$var wire 32 P" InstrData [31:0] $end
$var wire 32 Q" M_CSRtoWrite [31:0] $end
$var wire 32 R" M_WriteData [31:0] $end
$var wire 32 S" M_address [31:0] $end
$var wire 32 T" M_csrMod [31:0] $end
$var wire 1 U" Stall_D $end
$var wire 1 V" Stall_E $end
$var wire 1 W" Stall_F $end
$var wire 1 X" Stall_M $end
$var wire 32 Y" Wb_MemoryData [31:0] $end
$var wire 1 Z" Wb_RegWrite $end
$var wire 5 [" Wb_rd [4:0] $end
$var wire 32 \" Wb_rdData [31:0] $end
$var wire 1 ]" clk $end
$var wire 1 3 end_prog $end
$var wire 1 4 error $end
$var wire 1 ^" halt $end
$var wire 1 _" loadHazard $end
$var wire 32 `" mem_address [31:0] $end
$var wire 32 a" mem_in [31:0] $end
$var wire 4 b" mem_mask [3:0] $end
$var wire 32 c" mem_out [31:0] $end
$var wire 1 8 mem_read $end
$var wire 1 9 mem_write $end
$var wire 1 d" rs1Hazard $end
$var wire 1 e" rs2Hazard $end
$var wire 1 f" rst $end
$var reg 4 g" DE_ALUCtrl [3:0] $end
$var reg 1 h" DE_ALUSrc1 $end
$var reg 1 i" DE_ALUSrc2 $end
$var reg 1 j" DE_CSRRead $end
$var reg 1 k" DE_CSRWrite $end
$var reg 1 l" DE_Jump $end
$var reg 1 m" DE_MemRead $end
$var reg 1 n" DE_MemWrite $end
$var reg 1 o" DE_RegWrite $end
$var reg 1 p" DE_error $end
$var reg 3 q" DE_funct3 [2:0] $end
$var reg 32 r" DE_imm [31:0] $end
$var reg 1 s" DE_isBRANCH $end
$var reg 1 t" DE_isCSR $end
$var reg 1 u" DE_isEBREAK $end
$var reg 1 v" DE_isJALR $end
$var reg 1 w" DE_nop $end
$var reg 32 x" DE_pc [31:0] $end
$var reg 5 y" DE_rd [4:0] $end
$var reg 5 z" DE_rs1 [4:0] $end
$var reg 32 {" DE_rs1Data [31:0] $end
$var reg 5 |" DE_rs2 [4:0] $end
$var reg 32 }" DE_rs2Data [31:0] $end
$var reg 1 ~" D_ALUSrc1 $end
$var reg 1 !# D_ALUSrc2 $end
$var reg 1 "# D_CSRRead $end
$var reg 1 ## D_CSRWrite $end
$var reg 1 $# D_RegWrite $end
$var reg 1 %# D_error $end
$var reg 1 &# D_funQual $end
$var reg 32 '# D_imm [31:0] $end
$var reg 1 (# EM_CSRRead $end
$var reg 1 )# EM_CSRWrite $end
$var reg 1 *# EM_MemRead $end
$var reg 1 +# EM_MemWrite $end
$var reg 1 ,# EM_RegWrite $end
$var reg 12 -# EM_csr [11:0] $end
$var reg 32 .# EM_csrDataIn [31:0] $end
$var reg 3 /# EM_funct3 [2:0] $end
$var reg 1 0# EM_isCSR $end
$var reg 1 1# EM_nop $end
$var reg 5 2# EM_rd [4:0] $end
$var reg 32 3# EM_resultado [31:0] $end
$var reg 32 4# EM_rs2Data [31:0] $end
$var reg 1 5# FD_nop $end
$var reg 32 6# FD_pc [31:0] $end
$var reg 32 7# F_pc [31:0] $end
$var reg 1 8# MW_MemRead $end
$var reg 1 9# MW_RegWrite $end
$var reg 2 :# MW_address_LSB [1:0] $end
$var reg 3 ;# MW_funct3 [2:0] $end
$var reg 1 <# MW_nop $end
$var reg 5 =# MW_rd [4:0] $end
$var reg 32 ># MW_resultado [31:0] $end
$var reg 32 ?# M_CSRData [31:0] $end
$var reg 32 @# PWM_ [31:0] $end
$var reg 64 A# cycle [63:0] $end
$var reg 64 B# instret [63:0] $end
$scope module reg32 $end
$var wire 1 ]" clk $end
$var wire 5 C# readReg1 [4:0] $end
$var wire 5 D# readReg2 [4:0] $end
$var wire 32 E# reg1 [31:0] $end
$var wire 32 F# reg2 [31:0] $end
$var wire 32 G# wr_data [31:0] $end
$var wire 1 Z" wr_ena $end
$var wire 5 H# wr_reg [4:0] $end
$var integer 32 I# i [31:0] $end
$upscope $end
$scope module alu $end
$var wire 4 J# ALUCtrl [3:0] $end
$var wire 1 K# EQ $end
$var wire 1 L# LT $end
$var wire 1 M# LTU $end
$var wire 1 N# esp_fun $end
$var wire 8 O# funcionIs [7:0] $end
$var wire 32 P# in1 [31:0] $end
$var wire 32 Q# in2 [31:0] $end
$var wire 33 R# minus [32:0] $end
$var wire 5 S# shamt [4:0] $end
$var wire 32 T# shift_in [31:0] $end
$var wire 32 U# shift_out [31:0] $end
$var reg 32 V# ALUout [31:0] $end
$var reg 1 W# branch $end
$scope function flip32 $end
$var reg 32 X# flip32 [31:0] $end
$var reg 32 Y# x [31:0] $end
$upscope $end
$upscope $end
$scope module store $end
$var wire 2 Z# addr_LSB [1:0] $end
$var wire 32 [# data [31:0] $end
$var wire 2 \# data_width [1:0] $end
$var wire 4 ]# mask [3:0] $end
$var wire 4 ^# mask_data [3:0] $end
$var wire 1 _# memWrite $end
$var wire 32 `# wr_datatoMem [31:0] $end
$upscope $end
$scope module load $end
$var wire 2 a# addr_LSB [1:0] $end
$var wire 8 b# data_byte [7:0] $end
$var wire 16 c# data_half [15:0] $end
$var wire 32 d# data_mem [31:0] $end
$var wire 32 e# data_readed [31:0] $end
$var wire 2 f# data_width [1:0] $end
$var wire 1 g# signo_byte $end
$var wire 1 h# signo_half $end
$var wire 1 i# sin_signo $end
$upscope $end
$upscope $end
$scope task riscv_disasm $end
$var reg 32 j# PC [31:0] $end
$var reg 32 k# instr [31:0] $end
$var reg 32 l# pcMasBimm [31:0] $end
$var reg 32 m# pcMasJimm [31:0] $end
$var reg 32 n# pcMasUimm [31:0] $end
$upscope $end
$upscope $end
$enddefinitions $end
#0
$dumpvars
bx n#
bx m#
bx l#
bx k#
bx j#
xi#
0h#
0g#
bx f#
b0 e#
b0 d#
b0 c#
b0 b#
bx a#
bx `#
x_#
bx ^#
bx ]#
bx \#
bx [#
bx Z#
bx Y#
bx X#
xW#
bx V#
bx U#
bx T#
bx S#
bx R#
bx Q#
bx P#
bx O#
xN#
xM#
xL#
xK#
bx J#
b100000 I#
bx H#
bx G#
b0 F#
b0 E#
b0 D#
b0 C#
bx B#
bx A#
bx @#
bx ?#
bx >#
bx =#
x<#
bx ;#
bx :#
x9#
x8#
b0 7#
b0 6#
15#
bx 4#
bx 3#
bx 2#
x1#
x0#
bx /#
bx .#
bx -#
x,#
x+#
x*#
x)#
x(#
b0 '#
0&#
0%#
0$#
0##
0"#
1!#
0~"
bx }"
bx |"
bx {"
bx z"
bx y"
bx x"
xw"
xv"
xu"
xt"
xs"
bx r"
bx q"
xp"
xo"
xn"
xm"
xl"
xk"
xj"
xi"
xh"
bx g"
1f"
0e"
xd"
bx c"
bx b"
b0 a"
bx00 `"
x_"
0^"
0]"
bx \"
bx ["
xZ"
b0 Y"
0X"
xW"
0V"
xU"
bx T"
bx S"
bx R"
bx Q"
b10011 P"
b0 O"
0N"
0M"
xL"
xK"
b100 J"
b10011 I"
bx H"
bx G"
bx F"
b0 E"
xD"
xC"
xB"
xA"
x@"
x?"
bx >"
bx ="
bx <"
bx ;"
0:"
b0 9"
b0 8"
17"
b0 6"
b0 5"
04"
b0 3"
b10011 2"
01"
00"
0/"
0."
0-"
0,"
0+"
0*"
0)"
0("
0'"
0&"
1%"
b0 $"
1#"
b0 ""
b0 !"
b0 ~
b0 }
b0 |
b0 {
1z
bx y
bx x
bx w
bx v
bx u
bx t
xs
bx r
xq
bx p
bx o
bx n
xm
bx l
xk
bx j
xi
bx h
xg
bx f
xe
bx d
xc
bx b
xa
bx `
x_
bx ^
x]
bx \
x[
bx Z
xY
bx X
bx W
bx V
bx U
bx T
bx S
bx R
bx Q
bx P
bx O
bx N
bx M
bx L
bx K
bx J
bx I
bx H
bx G
bx F
1E
b0 D
b0 C
b10011 B
b100000000 A
0@
1?
bx >
bx =
bx <
bx ;
bx :
x9
x8
bx 7
bx 6
bx00 5
x4
x3
02
x1
00
x/
b0 .
x-
x,
x+
x*
x)
0(
0'
x&
x%
b0 $
bx #
b0 "
b10011 !
$end
#2000
0L"
0&
0W"
01
0U"
0/
0K"
0%
0?"
0-
0_"
b1 O#
0N#
b0 ?#
0p"
04
0j"
0k"
0u"
03
0t"
0s"
0l"
0v"
b0 g"
b0 J#
0i"
0h"
0o"
0m"
0n"
1w"
b0 @#
b0 B#
b0 A#
b11111111111100000000011100010011 B
b11111111111100000000011100010011 P"
bx C
b10011 :
bx n#
bx000000000000 O
bx N
bx l#
bx0 G
bx F
bx m#
bx0 K
bx J
bx j#
bx k#
1@
1]"
#3000
0E
#4000
0@
0]"
#6000
0A"
0+
0@"
0)
b0 6
b0 b"
b0 ^#
1d"
b0 >"
b100 .
b100 O"
b1000 J"
0?
0f"
0,#
00#
0)#
0(#
0+#
0_#
09
0*#
08
11#
0i"
b0 q"
b0 y"
b0 |"
b0 z"
b0 x"
b0 F"
b0 #
b0 r"
b0 }"
b0 {"
b100 7#
b100 $
b10011 ;
bx n#
bx000000000000 O
bx N
bx l#
bx0 G
bx F
bx m#
bx0 K
bx J
bx j#
bx k#
1@
1]"
#8000
0@
0]"
#10000
1W#
1B"
b0 U#
0L#
0M#
1K#
b0 T#
b0 R#
b0 S#
b0 X#
b0 Y#
b0 V#
b0 ="
0z
07"
b0 <"
b0 Q#
b0 ;"
b0 P#
0d"
1!#
1$#
b11111111111111111111000000000000 '#
b0 H"
b0 G"
0%"
1/"
b110111 2"
14"
b10 3"
0#"
b111 ""
b11111 5"
b11111 8"
b11111 D#
b1111111 $"
b11111111111111111111111111111111 |
b11111111111111111111111111100010 ~
b11111111111111111111011111100010 {
b11111111111111111111111111111110 }
b11111111111111111111000000000000 !"
b1000 .
b1000 O"
b1100 J"
b11111111111111111111000100110111 I"
b11111111111111111111000100110111 !
b0 \#
0D"
0,
0C"
0*
b1000 7#
b1000 $
b100 6#
b100 E"
b100 "
05#
0i"
b0 /#
b0 2#
b0 -#
09#
0Z"
08#
1<#
b1 A#
b11111111111111111111000100110111 B
b11111111111111111111000100110111 P"
b10011 =
b0 <
bx n#
bx000000000000 O
bx N
bx l#
bx0 G
bx F
bx m#
bx0 K
bx J
bx j#
bx k#
1@
1]"
#12000
0@
0]"
#14000
1d"
b1 ]#
1z
17"
0W#
0B"
b10 C#
1!#
b11110000 '#
1M#
0K#
1%"
0/"
b10011 2"
1#"
b0 ""
b10 5"
b10000 8"
b10000 D#
b111 $"
b11110000 |
b11100010 ~
b11100010 {
b10000000011110000 }
b1111000000010000000000000000 !"
b0 T"
b100000000000000000001000000000000 R#
b11111111111111111111000000000000 V#
b11111111111111111111000000000000 ="
b1111000000010000000100010011 I"
b1111000000010000000100010011 !
b0 f#
0i#
b0 Q"
b0 7
b0 c"
b0 `#
b0 Z#
b0 5
b0 `"
b11111111111111111111000000000000 <"
b11111111111111111111000000000000 Q#
b11111111111111111111000000000100 >"
b1100 .
b1100 O"
b10000 J"
b1111000000010000000100010011 B
b1111000000010000000100010011 P"
b10 A#
b0 =#
b0 ["
b0 H#
b0 ;#
b0 .#
b0 4#
b0 R"
b0 [#
b0 3#
b0 S"
1i"
1o"
0w"
b111 q"
b10 y"
b11111 |"
b11111 z"
b100 x"
b100 #
b11111111111111111111000000000000 r"
b11111111111111111111000000000100 F"
b1100 7#
b1100 $
b1000 6#
b1000 E"
b1000 "
b0 >
b11111111111111111111000100110111 :
bx n#
b0 O
b10011 N
bx l#
b0 G
b10011 F
bx m#
b0 K
b10011 J
bx j#
b10011 k#
1@
1]"
#16000
0@
0]"
#18000
b1111 U#
1L#
b11111111111111111111 T#
b11111111111111111111 X#
b11111111111111111111000000000000 Y#
0M#
0z
07"
b11111111111111111111000000000000 ;"
b11111111111111111111000000000000 P#
b1111 ]#
0d"
b0 C#
1!#
b1000000000000000 '#
b11111111111111111110111100010000 R#
b10000 S#
b11111111111111111111000011110000 V#
b11111111111111111111000011110000 ="
b11111111111111111111000000000000 G"
0%"
1/"
b110111 2"
b11 3"
b1 5"
b0 8"
b0 D#
b0 $"
b0 |
b11 ~
b100000000010 {
b1000000000000000 }
b1000000000000000 !"
b10000 .
b10000 O"
b10100 J"
b11110000 <"
b11110000 Q#
b11111000 >"
1@"
1)
b11 \#
b0 Q"
b11111111111111111111000000000000 5
b11111111111111111111000000000000 `"
b0 \"
b0 G#
b1000000110110111 I"
b1000000110110111 !
b10000 7#
b10000 $
b1100 6#
b1100 E"
b1100 "
b0 q"
b10000 |"
b10 z"
b1000 x"
b1000 #
b11110000 r"
b11111000 F"
1,#
01#
b111 /#
b10 2#
b11111 .#
b11111111111111111111000000000000 3#
b11111111111111111111000000000000 S"
b0 >#
b0 :#
b0 a#
b11 A#
b1000000110110111 B
b1000000110110111 P"
b0 C
b100 <
b11111111111111111111000100110111 ;
b1111000000010000000100010011 :
0s
0m
b11111111111111111111000100110111 l
0_
b11111111111111111111000100110111 ^
0[
b11111111111111111111000100110111 Z
b11111111111111111111000100110111 r
0q
1e
b11111111111111111111000100110111 d
0]
b11111111111111111111000100110111 \
0a
b11111111111111111111000100110111 `
b11111111111111111111000100110111 p
b11110000 I
b1111000000010000000100010011 H
b0 n#
b0 O
b10011 N
b0 l#
b0 G
b10011 F
b0 m#
b0 K
b10011 J
b0 j#
b10011 k#
1@
1]"
#20000
0@
0]"
#22000
1d"
1z
17"
b0 T#
1L#
b11 C#
1!#
b11111111111111111111101001101001 '#
b1 ]#
b0 X#
b0 Y#
1M#
b0 U#
1%"
0/"
b10011 2"
b11 5"
b1001 8"
b1001 D#
b1010011 $"
b11111111111111111111101001101001 |
b11111111111111111111101001100011 ~
b11111111111111111111101001100010 {
b11111111111100011000101001101000 }
b10100110100100011000000000000000 !"
b11111111111111111111000000000000 T"
b11111111111111111111000000000000 Q"
b0 ;"
b0 P#
b111111111111111111000000000000000 R#
b0 S#
b1000000000000000 V#
b1000000000000000 ="
b10100110100100011000000110010011 I"
b10100110100100011000000110010011 !
b11 f#
1i#
b11111111111111111111000000000000 \"
b11111111111111111111000000000000 G#
b0 \#
b0 G"
b11111111111111111111000011110000 5
b11111111111111111111000011110000 `"
0@"
0)
b1000000000000000 <"
b1000000000000000 Q#
b1000000000001100 >"
b10100 .
b10100 O"
b11000 J"
b10100110100100011000000110010011 B
b10100110100100011000000110010011 P"
b100 A#
19#
1Z"
0<#
b10 =#
b10 ["
b10 H#
b111 ;#
b11111111111111111111000000000000 >#
b0 /#
b11110000 -#
b11111111111111111111000000000000 .#
b11111111111111111111000011110000 3#
b11111111111111111111000011110000 S"
b11 y"
b0 |"
b1 z"
b1100 x"
b1100 #
b1000000000000000 r"
b1000000000001100 F"
b10100 7#
b10100 $
b10000 6#
b10000 E"
b10000 "
b100 >
b11111111111111111111000100110111 =
b1000 <
b1111000000010000000100010011 ;
b1000000110110111 :
b1111000000010000000100010011 l
b1111000000010000000100010011 ^
b1111000000010000000100010011 Z
b1111000000010000000100010011 r
1q
0e
b1111000000010000000100010011 d
b1111000000010000000100010011 \
b1111000000010000000100010011 `
b1111000000010000000100010011 p
b0 n#
b0 O
b10011 N
b0 l#
b0 G
b10011 F
b0 m#
b0 K
b10011 J
b0 j#
b10011 k#
1@
1]"
#24000
0@
0]"
#26000
b10000000 U#
b10000000000000000 T#
b10000000000000000 X#
b1000000000000000 Y#
0L#
b1000000000000000 ;"
b1000000000000000 P#
0d"
b10 C#
b11111111111111111111000000000000 6"
b11111111111111111111000000000000 E#
1!#
b10000 '#
b1000000000000000 G"
b100000000000000001000010110010111 R#
b1001 S#
b111101001101001 V#
b111101001101001 ="
b0 T"
b100 3"
0#"
b1 ""
b10 5"
b10000 8"
b10000 D#
b0 $"
b10000 |
b100 ~
b100 {
b10001000000010000 }
b1000000010001000000000000 !"
b11000 .
b11000 O"
b11100 J"
1@"
1)
b11111111111111111111101001101001 <"
b11111111111111111111101001101001 Q#
b11111111111111111111101001111001 >"
b0 Q"
b1000000000000000 5
b1000000000000000 `"
b0 f#
0i#
b11111111111111111111000011110000 \"
b11111111111111111111000011110000 G#
b1000000010001001000010011 I"
b1000000010001001000010011 !
b11000 7#
b11000 $
b10100 6#
b10100 E"
b10100 "
b1001 |"
b11 z"
b10000 x"
b10000 #
b11111111111111111111101001101001 r"
b11111111111111111111101001111001 F"
b11 2#
b0 -#
b0 .#
b1000000000000000 3#
b1000000000000000 S"
b0 ;#
b11111111111111111111000011110000 >#
b1 B#
b101 A#
b1000000010001001000010011 B
b1000000010001001000010011 P"
b1000 >
b1111000000010000000100010011 =
b1100 <
b1000000110110111 ;
b10100110100100011000000110010011 :
b1000000110110111 l
b1000000110110111 ^
b1000000110110111 Z
b1000000110110111 r
0q
1e
b1000000110110111 d
b1000000110110111 \
b1000000110110111 `
b1000000110110111 p
b11110000 I
b1111000000010000000100010011 H
b11111111111111111111000000000100 n#
b11111111111111111111000000000000 O
b11111111111111111111000100110111 N
b11111111111111111111011111100110 l#
b11111111111111111111011111100010 G
b11111111111111111111000100110111 F
b10 m#
b11111111111111111111111111111110 K
b11111111111111111111000100110111 J
b100 j#
b11111111111111111111000100110111 k#
1@
1]"
#28000
b11111111111111111111000011110000 6"
b11111111111111111111000011110000 E#
0@
0]"
#30000
b10 ]#
1L#
b1111000011111111111111111111 T#
1d"
1!#
b100 C#
b0 6"
b0 E#
0M#
b111100001111 U#
b101 3"
b101 ""
b100 5"
b101 ~
b100000000100 {
b100101000000010000 }
b1000000100101000000000000 !"
b1000000000000000 T"
b11111111111111111111000011110000 ;"
b11111111111111111111000011110000 P#
1W#
1B"
b11111111111111111111000011100000 R#
b10000 S#
b11110000111100000000000000000000 V#
b11110000111100000000000000000000 ="
b11110000111100000000000000000000 X#
b111100001111 Y#
b1000000100101001010010011 I"
b1000000100101001010010011 !
b1000000000000000 \"
b1000000000000000 G#
b1000000000000000 Q"
b11111111111111111111000011110000 G"
b1 Z#
b111101001101000 5
b111101001101000 `"
b10 O#
0@"
0)
b10000 <"
b10000 Q#
b100100 >"
b11100 .
b11100 O"
b100000 J"
b1000000100101001010010011 B
b1000000100101001010010011 P"
b10 B#
b110 A#
b11 =#
b11 ["
b11 H#
b1000000000000000 >#
b101001101001 -#
b1000000000000000 .#
b111101001101001 3#
b111101001101001 S"
b1 g"
b1 J#
b1 q"
b100 y"
b10000 |"
b10 z"
b10100 x"
b10100 #
b10000 r"
b100100 F"
b11111111111111111111000011110000 {"
b11100 7#
b11100 $
b11000 6#
b11000 E"
b11000 "
b1100 >
b1000000110110111 =
b10000 <
b10100110100100011000000110010011 ;
b1000000010001001000010011 :
b11110000 I
b1111000000010000000100010011 H
b10100110100100011000000110010011 l
b10100110100100011000000110010011 ^
b10100110100100011000000110010011 Z
b10100110100100011000000110010011 r
1q
0e
b10100110100100011000000110010011 d
b10100110100100011000000110010011 \
b10100110100100011000000110010011 `
b10100110100100011000000110010011 p
b1111000000010000000000001000 n#
b1111000000010000000000000000 O
b1111000000010000000100010011 N
b11101010 l#
b11100010 G
b1111000000010000000100010011 F
b10000000011111000 m#
b10000000011110000 K
b1111000000010000000100010011 J
b1000 j#
b1111000000010000000100010011 k#
1@
1]"
#32000
0@
0]"
#34000
1e"
b1111000011110000 U#
b111100001111 X#
b11110000111100000000000000000000 Y#
b11 ]#
1:"
b11110000111100000000000000000000 T#
b11110000111011111111111111110000 R#
b11110000111100000000000000000000 ;"
b11110000111100000000000000000000 P#
0!#
b101 '#
0W#
0B"
b1111000011110000 V#
b1111000011110000 ="
b11110000111100000000000000000000 G"
b0 T"
0%"
1&"
b110011 2"
1#"
b0 ""
b101 8"
b101 D#
b101 |
b100000100000000100 }
b10100100000000000000000 !"
b100000 .
b100000 O"
b100100 J"
b100000 O#
0d"
1@"
1)
b101000 >"
b1 \#
b11111111111111111111000011110000 Q"
b0 Z#
b11110000111100000000000000000000 5
b11110000111100000000000000000000 `"
b111101001101001 \"
b111101001101001 G#
b10100100000001010110011 I"
b10100100000001010110011 !
b100000 7#
b100000 $
b11100 6#
b11100 E"
b11100 "
b101 g"
b101 J#
b101 q"
b101 y"
b100 z"
b11000 x"
b101000 F"
b11000 #
b0 {"
b1 /#
b100 2#
b10000 -#
b11111111111111111111000011110000 .#
b11110000111100000000000000000000 3#
b11110000111100000000000000000000 S"
b111101001101001 >#
b1 :#
b1 a#
b11 B#
b111 A#
b10100100000001010110011 B
b10100100000001010110011 P"
b10000 >
b10100110100100011000000110010011 =
b10100 <
b1000000010001001000010011 ;
b1000000100101001010010011 :
b11111111111111111111101001101001 I
b10100110100100011000000110010011 H
b1000000010001001000010011 l
b1000000010001001000010011 ^
b1000000010001001000010011 Z
b1000000010001001000010011 r
b1000000010001001000010011 d
b1000000010001001000010011 \
b1000000010001001000010011 `
b1000000010001001000010011 p
b1000000000001100 n#
b1000000000000000 O
b1000000110110111 N
b100000001110 l#
b100000000010 G
b1000000110110111 F
b1000000000001100 m#
b1000000000000000 K
b1000000110110111 J
b1100 j#
b1000000110110111 k#
1@
1]"
#36000
0@
0]"
