Procesador_V1.2b/dump.vcd
$date
	Sat Aug 12 21:37:24 2023
$end
$version
	Icarus Verilog
$end
$timescale
	1ps
$end
$scope module RV32nexpo_tb $end
$var wire 32 ! PC [31:0] $end
$var wire 1 " end_prog $end
$var wire 1 # error $end
$var wire 32 $ mem_address [31:0] $end
$var wire 4 % mem_mask [3:0] $end
$var wire 32 & mem_out [31:0] $end
$var wire 1 ' mem_read $end
$var wire 1 ( mem_write $end
$var reg 1 ) _RST $end
$var reg 1 * clk $end
$var integer 32 + i [31:0] $end
$var reg 32 , instr [31:0] $end
$var reg 32 - leds [31:0] $end
$var reg 32 . mem_in [31:0] $end
$var reg 1 / rst $end
$scope module uut $end
$var wire 4 0 ALUCtrl [3:0] $end
$var wire 1 1 ALUbranch $end
$var wire 32 2 ALUin1 [31:0] $end
$var wire 32 3 ALUin2 [31:0] $end
$var wire 32 4 ALUout [31:0] $end
$var wire 32 5 Bimm [31:0] $end
$var wire 32 6 CSR_WrIN [31:0] $end
$var wire 32 7 CSR_Xtern [31:0] $end
$var wire 32 8 CSR_mod [31:0] $end
$var wire 32 9 Iimm [31:0] $end
$var wire 32 : InstrAddr [31:0] $end
$var wire 32 ; InstrData [31:0] $end
$var wire 32 < Jimm [31:0] $end
$var wire 1 = MemWrite $end
$var wire 1 > PC_src1 $end
$var wire 1 ? PC_src2 $end
$var wire 32 @ Simm [31:0] $end
$var wire 32 A Uimm [31:0] $end
$var wire 32 B WBData [31:0] $end
$var wire 32 C address [31:0] $end
$var wire 1 D clk $end
$var wire 12 E csr [11:0] $end
$var wire 3 F funct3 [2:0] $end
$var wire 7 G funct7 [6:0] $end
$var wire 32 H instr [31:0] $end
$var wire 1 I jump $end
$var wire 32 J mem_address [31:0] $end
$var wire 32 K mem_in [31:0] $end
$var wire 4 L mem_mask [3:0] $end
$var wire 32 M mem_out [31:0] $end
$var wire 1 ' mem_read $end
$var wire 1 ( mem_write $end
$var wire 7 N opcode [6:0] $end
$var wire 32 O pcMas4 [31:0] $end
$var wire 32 P pcMasImm [31:0] $end
$var wire 32 Q pcNext [31:0] $end
$var wire 32 R pcSuma [31:0] $end
$var wire 5 S rd [4:0] $end
$var wire 32 T read_data [31:0] $end
$var wire 32 U reg1Data [31:0] $end
$var wire 32 V reg2Data [31:0] $end
$var wire 5 W rs1 [4:0] $end
$var wire 5 X rs2 [4:0] $end
$var wire 1 Y rst $end
$var wire 32 Z write_data [31:0] $end
$var reg 1 [ ALUSrc1 $end
$var reg 1 \ ALUSrc2 $end
$var reg 1 ] CSRRead $end
$var reg 1 ^ CSRWrite $end
$var reg 32 _ CSR_value [31:0] $end
$var reg 1 ` CSRen $end
$var reg 1 a MemtoReg $end
$var reg 32 b PWM_ [31:0] $end
$var reg 1 c PcPlus4toReg $end
$var reg 1 d RegWrite $end
$var reg 64 e cycle [63:0] $end
$var reg 1 f end_prog $end
$var reg 1 g error $end
$var reg 1 h flushEN $end
$var reg 1 i funQual $end
$var reg 32 j imm [31:0] $end
$var reg 64 k instret [63:0] $end
$var reg 1 l isALU $end
$var reg 1 m isAUIPC $end
$var reg 1 n isBRANCH $end
$var reg 1 o isFENCE $end
$var reg 1 p isJAL $end
$var reg 1 q isJALR $end
$var reg 1 r isLOAD $end
$var reg 1 s isLUI $end
$var reg 1 t isSTORE $end
$var reg 1 u isSYSTEM $end
$var reg 1 v loadpcNext $end
$var reg 3 w nextState [2:0] $end
$var reg 32 x pc [31:0] $end
$var reg 32 y pcFetch [31:0] $end
$var reg 3 z state [2:0] $end
$scope module reg32 $end
$var wire 1 D clk $end
$var wire 5 { readReg1 [4:0] $end
$var wire 5 | readReg2 [4:0] $end
$var wire 32 } reg1 [31:0] $end
$var wire 32 ~ reg2 [31:0] $end
$var wire 32 !" wr_data [31:0] $end
$var wire 1 "" wr_ena $end
$var wire 5 #" wr_reg [4:0] $end
$var integer 32 $" i [31:0] $end
$upscope $end
$scope module alu $end
$var wire 4 %" ALUCtrl [3:0] $end
$var wire 1 &" EQ $end
$var wire 1 '" LT $end
$var wire 1 (" LTU $end
$var wire 1 )" esp_fun $end
$var wire 8 *" funcionIs [7:0] $end
$var wire 32 +" in1 [31:0] $end
$var wire 32 ," in2 [31:0] $end
$var wire 33 -" minus [32:0] $end
$var wire 5 ." shamt [4:0] $end
$var wire 32 /" shift_in [31:0] $end
$var wire 32 0" shift_out [31:0] $end
$var reg 32 1" ALUout [31:0] $end
$var reg 1 2" branch $end
$scope function flip32 $end
$var reg 32 3" flip32 [31:0] $end
$var reg 32 4" x [31:0] $end
$upscope $end
$upscope $end
$scope module load $end
$var wire 2 5" addr_LSB [1:0] $end
$var wire 8 6" data_byte [7:0] $end
$var wire 16 7" data_half [15:0] $end
$var wire 32 8" data_mem [31:0] $end
$var wire 32 9" data_readed [31:0] $end
$var wire 2 :" data_width [1:0] $end
$var wire 1 ;" signo_byte $end
$var wire 1 <" signo_half $end
$var wire 1 =" sin_signo $end
$upscope $end
$scope module store $end
$var wire 2 >" addr_LSB [1:0] $end
$var wire 32 ?" data [31:0] $end
$var wire 2 @" data_width [1:0] $end
$var wire 4 A" mask [3:0] $end
$var wire 4 B" mask_data [3:0] $end
$var wire 1 = memWrite $end
$var wire 32 C" wr_datatoMem [31:0] $end
$upscope $end
$upscope $end
$upscope $end
$enddefinitions $end
#0
$dumpvars
b0 C"
b0 B"
b1 A"
b0 @"
b0 ?"
b0 >"
0="
0<"
0;"
b0 :"
b0 9"
b0 8"
b0 7"
b0 6"
b0 5"
b0 4"
b0 3"
12"
b0 1"
b0 0"
b0 /"
b0 ."
b0 -"
b0 ,"
b0 +"
b1 *"
0)"
0("
0'"
1&"
b0 %"
b100000 $"
b0 #"
1""
b0 !"
b0 ~
b0 }
b0 |
b0 {
bx z
b0 y
b0 x
b0 w
1v
0u
0t
0s
0r
0q
0p
0o
0n
0m
1l
bx k
b0 j
0i
1h
0g
0f
bx e
1d
0c
bx b
0a
0`
b0 _
0^
0]
1\
0[
b0 Z
1Y
b0 X
b0 W
b0 V
b0 U
b0 T
b0 S
b100 R
b100 Q
b0 P
b100 O
b10011 N
b0 M
b0 L
b0 K
b0 J
0I
b10011 H
b0 G
b0 F
b0 E
0D
b0 C
b0 B
b0 A
b0 @
0?
0>
0=
b0 <
b10011 ;
b0 :
b0 9
b0 8
b0 7
b0 6
b0 5
b0 4
b0 3
b0 2
11
b0 0
1/
b0 .
b0 -
b10011 ,
b100000000 +
0*
1)
0(
0'
b0 &
b0 %
b0 $
0#
0"
b0 !
$end
#2000
b1 w
b0 z
b0 b
b0 k
b0 e
b11111111111100000000011100010011 ,
b11111111111100000000011100010011 ;
b11111111111100000000011100010011 -
1*
1D
#3000
0/
#4000
0*
0D
#6000
0)
0Y
1*
1D
#8000
0*
0D
#10000
b1000 A"
b11111111111111111111111111111111 B
b11111111111111111111111111111111 !"
02"
01
1("
0&"
b11 5"
b11 >"
b11111111111111111111111111111100 $
b11111111111111111111111111111100 J
b100000000000000000000000000000001 -"
b11111 ."
b11111111111111111111111111111111 1"
b11111111111111111111111111111111 4
b11111111111111111111111111111111 C
b11111111111111111111111111111111 3
b11111111111111111111111111111111 ,"
b1000 Q
b11111111111111111111111111111111 j
b11111111111111111111111111111111 P
b1000 R
b1110 S
b1110 #"
b11111 X
b11111 |
b1111111 G
b111111111111 E
b11111111111111111111111111111111 9
b11111111111111111111111111101110 @
b11111111111111111111011111101110 5
b11111111111100000000111111111110 <
b11111111111100000000000000000000 A
0i
1\
1d
1""
1l
b100 !
b100 :
b1000 O
b11111111111100000000011100010011 H
b100 y
b1 z
0h
b1 e
1*
1D
#12000
0*
0D
#14000
b11111111111111111111000000000000 B
b11111111111111111111000000000000 !"
b100000000000000000001000000000000 -"
b0 ."
b0 5"
b0 >"
b11111111111111111111000000000000 $
b11111111111111111111000000000000 J
b1111 A"
b11111111111111111111000000000000 3
b11111111111111111111000000000000 ,"
b11111111111111111111000000000000 1"
b11111111111111111111000000000000 4
b11111111111111111111000000000000 C
b11111 7
b11111111111111111111000000000000 j
b1 *"
b11 :"
1="
b11 @"
1s
b0 {
b0 0
b0 %"
b1100 Q
b110111 N
b10 S
b10 #"
b111 F
b11111 W
b11111111111111111111111111100010 @
b11111111111111111111011111100010 5
b11111111111111111111111111111110 <
b11111111111111111111000000000000 A
xi
1\
1d
1""
0l
b1100 R
b11111111111111111111000100110111 H
b1000 !
b1000 :
b1100 O
b0 -
b11111111111111111111000100110111 ,
b11111111111111111111000100110111 ;
b1 k
b10 e
b1000 y
b100 x
b11111111111111111111000000000100 P
1*
1D
#16000
0*
0D
#18000
b1111 0"
b11111111111111111111 /"
b11111111111111111111000011110000 B
b11111111111111111111000011110000 !"
b11111111111111111111 3"
b11111111111111111111000000000000 4"
0("
1'"
b1 A"
b10000 ."
b11111111111111111111000000000000 2
b11111111111111111111000000000000 +"
b11111111111111111111000011110000 $
b11111111111111111111000011110000 J
b11111111111111111111000000000000 8
b11111111111111111111000000000000 6
b10 {
b11111111111111111111000000000000 U
b11111111111111111111000000000000 }
b11111111111111111110111100010000 -"
b11111111111111111111000011110000 1"
b11111111111111111111000011110000 4
b11111111111111111111000011110000 C
b10000 Q
b0 :"
0="
b0 @"
b11111111111111111111000000000000 7
0i
1l
b11110000 3
b11110000 ,"
b11110000 j
b10000 R
b10011 N
b0 F
b10 W
b10000 X
b10000 |
b111 G
b11110000 E
b11110000 9
b11100010 @
b11100010 5
b10000000011110000 <
b1111000000010000000000000000 A
1\
1d
1""
0s
b1100 !
b1100 :
b10000 O
b1111000000010000000100010011 H
b1100 y
b1000 x
b11111000 P
b10 k
b11 e
b1111000000010000000100010011 ,
b1111000000010000000100010011 ;
b11111111111100000000011100010011 -
1*
1D
#20000
0*
0D
#22000
1("
02"
01
1'"
0&"
b0 ."
b1000000000000000 B
b1000000000000000 !"
b1000000000000000 3
b1000000000000000 ,"
b0 0"
b0 {
1s
b1000000000000000 j
b10100 Q
b0 8
b0 /"
b1000000000000000 $
b1000000000000000 J
b110111 N
b11 S
b11 #"
b1 W
b0 X
b0 |
b0 G
b0 E
b0 9
b11 @
b100000000010 5
b1000000000000000 <
b1000000000000000 A
xi
1\
1d
1""
0l
b10100 R
b0 6
b0 3"
b0 4"
b1000000000000000 1"
b1000000000000000 4
b1000000000000000 C
b1000000110110111 H
b10000 !
b10000 :
b10100 O
b0 7
b111111111111111111000000000000000 -"
b0 2
b0 +"
b0 -
b1000000110110111 ,
b1000000110110111 ;
b11 k
b100 e
b10000 y
b1100 x
b1000000000001100 P
b0 U
b0 }
1*
1D
#24000
0*
0D
#26000
b10 A"
b10000000 0"
b1000000000000000 8
b10000000000000000 /"
b111101001101001 B
b111101001101001 !"
b1000000000000000 6
b10000000000000000 3"
b1000000000000000 4"
b1 5"
b1 >"
0'"
b1001 ."
b1000000000000000 7
b1000000000000000 2
b1000000000000000 +"
b111101001101000 $
b111101001101000 J
b11 {
b1000000000000000 U
b1000000000000000 }
b100000000000000001000010110010111 -"
b111101001101001 1"
b111101001101001 4
b111101001101001 C
b11000 Q
0i
1l
b11111111111111111111101001101001 3
b11111111111111111111101001101001 ,"
b11111111111111111111101001101001 j
b11000 R
b10011 N
b11 W
b1001 X
b1001 |
b1010011 G
b101001101001 E
b11111111111111111111101001101001 9
b11111111111111111111101001100011 @
b11111111111111111111101001100010 5
b11111111111100011000101001101000 <
b10100110100100011000000000000000 A
1\
1d
1""
0s
b10100 !
b10100 :
b11000 O
b10100110100100011000000110010011 H
b10100 y
b10000 x
b11111111111111111111101001111001 P
b100 k
b101 e
b10100110100100011000000110010011 ,
b10100110100100011000000110010011 ;
b11111111111100000000011100010011 -
1*
1D
#28000
0*
0D
#30000
b11 A"
1'"
0("
b10000 ."
12"
11
b11110000111100000000000000000000 B
b11110000111100000000000000000000 !"
b10000 3
b10000 ,"
b10 *"
b111100001111 0"
b1 :"
b1 @"
b10 {
b10000 j
b1 0
b1 %"
b11100 Q
b0 8
b1111000011111111111111111111 /"
b0 5"
b0 >"
b11110000111100000000000000000000 $
b11110000111100000000000000000000 J
b100 S
b100 #"
b1 F
b10 W
b10000 X
b10000 |
b0 G
b10000 E
b10000 9
b100 @
b100 5
b10001000000010000 <
b1000000010001000000000000 A
0i
1\
1d
1""
1l
b11100 R
b11111111111111111111000011110000 6
b11110000111100000000000000000000 3"
b111100001111 4"
b11110000111100000000000000000000 1"
b11110000111100000000000000000000 4
b11110000111100000000000000000000 C
b1000000010001001000010011 H
b11000 !
b11000 :
b11100 O
b11111111111111111111000011110000 7
b11111111111111111111000011100000 -"
b11111111111111111111000011110000 2
b11111111111111111111000011110000 +"
b0 -
b1000000010001001000010011 ,
b1000000010001001000010011 ;
b101 k
b110 e
b11000 y
b10100 x
b100100 P
b11111111111111111111000011110000 U
b11111111111111111111000011110000 }
1*
1D
#32000
0*
0D
#34000
b11 A"
b1111000011110000 B
b1111000011110000 !"
b1111000011110000 0"
b11110000111100000000000000000000 /"
b0 5"
b0 >"
b1111000011110000 $
b1111000011110000 J
b100 6
b111100001111 3"
b11110000111100000000000000000000 4"
02"
01
b1111000011110000 1"
b1111000011110000 4
b1111000011110000 C
b100 7
b11110000111011111111111111110000 -"
b11110000111100000000000000000000 2
b11110000111100000000000000000000 +"
b100000 *"
b100000 Q
1="
b100 {
b11110000111100000000000000000000 U
b11110000111100000000000000000000 }
b101 0
b101 %"
b100000 R
b101 S
b101 #"
b101 F
b100 W
b101 @
b100000000100 5
b100101000000010000 <
b1000000100101000000000000 A
0i
1\
1d
1""
1l
b11100 !
b11100 :
b100000 O
b1000000100101001010010011 H
b11100 y
b11000 x
b101000 P
b110 k
b111 e
b1000000100101001010010011 ,
b1000000100101001010010011 ;
b11111111111100000000011100010011 -
1*
1D
#36000
0*
0D
#38000
b11110000111100001111000011110000 B
b11110000111100001111000011110000 !"
b0 0"
b1 A"
b111100001111 /"
b11110000111100001111000011110000 $
b11110000111100001111000011110000 J
b11110000111100000000000000000000 6
b11110000111011110000111100010000 -"
b11110000111100001111000011110000 1"
b11110000111100001111000011110000 4
b11110000111100001111000011110000 C
b11110000111100000000000000000000 7
b11110000111100000000000000000000 8
b1111000011110000 3
b1111000011110000 ,"
b1 *"
b0 :"
0="
b0 @"
b1111000011110000 &
b1111000011110000 M
b1111000011110000 C"
b101 j
b0 0
b0 %"
b100100 Q
b110011 N
b0 F
b1111000011110000 V
b1111000011110000 ~
b1111000011110000 Z
b1111000011110000 ?"
b101 X
b101 |
b101 E
b101 9
b100000100000000100 <
b10100100000000000000000 A
0i
0\
1d
1""
1l
b100100 R
b10100100000001010110011 H
b100000 !
b100000 :
b100100 O
b0 -
b10100100000001010110011 ,
b10100100000001010110011 ;
b111 k
b1000 e
b100000 y
b11100 x
b100001 P
1*
1D
#40000
0*
0D
#42000
b111100001111 0"
b11110000111100001111000011110000 8
b1111000011110000111100001111 /"
0'"
12"
11
b11100001111000011110000111100000 B
b11100001111000011110000111100000 !"
b11110000111100001111000011110000 6
b1111000011110000111100001111 3"
b11110000111100001111000011110000 4"
1&"
b11110000111100001111000011110000 7
b11110000111100001111000011110000 2
b11110000111100001111000011110000 +"
0("
b11100001111000011110000111100000 $
b11100001111000011110000111100000 J
b101000 Q
b101 {
b11110000111100001111000011110000 U
b11110000111100001111000011110000 }
b0 -"
b11100001111000011110000111100000 1"
b11100001111000011110000111100000 4
b11100001111000011110000111100000 C
b11110000111100001111000011110000 &
b11110000111100001111000011110000 M
b11110000111100001111000011110000 C"
b101000 R
b110 S
b110 #"
b101 W
b110 @
b110 5
b101000100000000100 <
b10100101000000000000000 A
0i
1d
1""
1l
b11110000111100001111000011110000 3
b11110000111100001111000011110000 ,"
b100100 !
b100100 :
b101000 O
b10100101000001100110011 H
b11110000111100001111000011110000 V
b11110000111100001111000011110000 ~
b11110000111100001111000011110000 Z
b11110000111100001111000011110000 ?"
b100100 y
b100000 x
b100101 P
b1000 k
b1001 e
b10100101000001100110011 ,
b10100101000001100110011 ;
1*
1D
#44000
0*
0D
#46000
b0 5"
b0 >"
b111101001101001 6
b1001011001011110 0"
b0 B
b0 !"
b111101001101001 8
b10010110010111100000000000000000 /"
0'"
b1111 A"
b10010110010111100000000000000000 3"
b111101001101001 4"
1("
0&"
b0 $
b0 J
02"
01
b111101001101001 7
b111101001101001 2
b111101001101001 +"
b100000000000000001000100101111001 -"
b0 1"
b0 4
b0 C
b11111111111111111111000011110000 &
b11111111111111111111000011110000 M
b11111111111111111111000011110000 C"
b100 *"
b10 :"
b10 @"
b11 {
b111101001101001 U
b111101001101001 }
b11111111111111111111000011110000 3
b11111111111111111111000011110000 ,"
b10 j
b10 0
b10 %"
b101100 Q
b1000 S
b1000 #"
b10 F
b11 W
b11111111111111111111000011110000 V
b11111111111111111111000011110000 ~
b11111111111111111111000011110000 Z
b11111111111111111111000011110000 ?"
b10 X
b10 |
b10 E
b10 9
b1000 @
b1000 5
b11010000000000010 <
b1000011010000000000000 A
0i
1d
1""
1l
b101100 R
b1000011010010000110011 H
b101000 !
b101000 :
b101100 O
b1000011010010000110011 ,
b1000011010010000110011 ;
b1001 k
b1010 e
b101000 y
b100100 x
b100110 P
1*
1D
#48000
0*
0D
#50000
b1 B
b1 !"
b11111111111111111111000011110000 6
b1 5"
b1 >"
b11111111111111111111000011110000 8
b1111000011111111111111111111 /"
b1 1"
b1 4
b1 C
1'"
b1111000011111111111111111111 3"
b11111111111111111111000011110000 4"
0("
b111100001111111111111111 0"
b11111111111111111111000011110000 7
b11111111111111111111000011110000 2
b11111111111111111111000011110000 +"
b11111111111111111111000011101100 -"
b100 ."
b110000 Q
1\
b10 {
b11111111111111111111000011110000 U
b11111111111111111111000011110000 }
b100 3
b100 ,"
b111100000000000000000000 &
b111100000000000000000000 M
b111100000000000000000000 C"
b100 j
b110000 R
b10011 N
b1001 S
b1001 #"
b10 W
b11110000111100000000000000000000 V
b11110000111100000000000000000000 ~
b11110000111100000000000000000000 Z
b11110000111100000000000000000000 ?"
b100 X
b100 |
b100 E
b100 9
b1001 @
b100000001000 5
b10010000000000100 <
b10000010010000000000000 A
0i
1d
1""
1l
b101100 !
b101100 :
b110000 O
b10000010010010010010011 H
b101100 y
b101000 x
b101100 P
b1010 k
b1011 e
b10000010010010010010011 ,
b10000010010010010010011 ;
b11111111111100000000011100010011 -
1*
1D
#52000
0*
0D
#54000
b1 B
b1 !"
b10010110010111100000000000000000 /"
0'"
1("
b1001011001011110 0"
b1 5"
b1 >"
b0 6
b10010110010111100000000000000000 3"
b111101001101001 4"
b10000 ."
b1 1"
b1 4
b1 C
b0 8
b111101001101001 7
b100000000000000001000100101111001 -"
b111101001101001 2
b111101001101001 +"
b11111111111111111111000011110000 3
b11111111111111111111000011110000 ,"
b1000 *"
b11 :"
b11 @"
b11 {
b111101001101001 U
b111101001101001 }
b11110000111111111111000011110000 &
b11110000111111111111000011110000 M
b11110000111111111111000011110000 C"
b10 j
b11 0
b11 %"
b110100 Q
b110011 N
b1010 S
b1010 #"
b11 F
b11 W
b11111111111111111111000011110000 V
b11111111111111111111000011110000 ~
b11111111111111111111000011110000 Z
b11111111111111111111000011110000 ?"
b10 X
b10 |
b10 E
b10 9
b1010 @
b1010 5
b11011000000000010 <
b1000011011000000000000 A
0i
0\
1d
1""
1l
b110100 R
b1000011011010100110011 H
b110000 !
b110000 :
b110100 O
b1000011011010100110011 ,
b1000011011010100110011 ;
b1011 k
b1100 e
b110000 y
b101100 x
b101110 P
1*
1D
#56000
0*
0D
#58000
b0 B
b0 !"
b0 5"
b0 >"
b1111000011111111111111111111 /"
b0 1"
b0 4
b0 C
1'"
b1111000011111111111111111111 3"
b11111111111111111111000011110000 4"
0("
b111100001111111111111111 0"
b11111111111111111111000011110000 7
b11111111111111111111000011110000 2
b11111111111111111111000011110000 +"
b11111111111111111111000011101100 -"
b100 ."
b111000 Q
1\
b10 {
b11111111111111111111000011110000 U
b11111111111111111111000011110000 }
b100 3
b100 ,"
b11110000111100000000000000000000 &
b11110000111100000000000000000000 M
b11110000111100000000000000000000 C"
b100 j
b111000 R
b10011 N
b1011 S
b1011 #"
b10 W
b11110000111100000000000000000000 V
b11110000111100000000000000000000 ~
b11110000111100000000000000000000 Z
b11110000111100000000000000000000 ?"
b100 X
b100 |
b100 E
b100 9
b1011 @
b100000001010 5
b10011000000000100 <
b10000010011000000000000 A
0i
1d
1""
1l
b110100 !
b110100 :
b111000 O
b10000010011010110010011 H
b110100 y
b110000 x
b110100 P
b1100 k
b1101 e
b10000010011010110010011 ,
b10000010011010110010011 ;
1*
1D
#60000
0*
0D
#62000
b11110000111100001111000011110000 B
b11110000111100001111000011110000 !"
b0 /"
0'"
b0 0"
b11110000111100001111000011110000 $
b11110000111100001111000011110000 J
b1 A"
b0 3"
b0 4"
1("
b10000 ."
b11110000111100001111000011110000 1"
b11110000111100001111000011110000 4
b11110000111100001111000011110000 C
b0 8
b0 7
b100001111000011110000111100010000 -"
b0 2
b0 +"
b11110000111100001111000011110000 3
b11110000111100001111000011110000 ,"
b1 *"
b0 :"
b0 @"
b1000 {
b0 U
b0 }
b11110000111100001111000011110000 &
b11110000111100001111000011110000 M
b11110000111100001111000011110000 C"
b101 j
b0 0
b0 %"
b111100 Q
b110011 N
b1000 S
b1000 #"
b0 F
b1000 W
b11110000111100001111000011110000 V
b11110000111100001111000011110000 ~
b11110000111100001111000011110000 Z
b11110000111100001111000011110000 ?"
b101 X
b101 |
b101 E
b101 9
b1000 @
b1000 5
b1000000100000000100 <
b10101000000000000000000 A
0i
0\
1d
1""
1l
b111100 R
b10101000000010000110011 H
b111000 !
b111000 :
b111100 O
b10101000000010000110011 ,
b10101000000010000110011 ;
b1101 k
b1110 e
b111000 y
b110100 x
b111001 P
1*
1D
#64000
0*
0D
#66000
b1 w
0I
0>
x)"
bx0000011110000111 0"
bx00x0xxxx00x0xxxx00x0xxxxxx00 B
bx00x0xxxx00x0xxxx00x0xxxxxx00 !"
bx000 0
bx000 %"
b11100001111000011110000111100000 8
b111100001111000011110000111 /"
02"
01
1'"
b11x100x011x100x011x100x011x10000 $
b11x100x011x100x011x100x011x10000 J
b1000000 Q
xc
xa
1n
b110 {
b1000 j
b11100001111000011110000111100000 6
b111100001111000011110000111 3"
b11100001111000011110000111100000 4"
1("
0&"
b11x100x011x100x011x100x011x10000 1"
b11x100x011x100x011x100x011x10000 4
b11x100x011x100x011x100x011x10000 C
b1000000 R
b1100011 N
b110 W
b1000 X
b1000 |
b1000 E
b1000 9
b110000000000001000 <
b100000110000000000000000 A
xi
0d
0""
0l
b11100001111000011110000111100000 7
b111110000111100001111000011110000 -"
b11100001111000011110000111100000 2
b11100001111000011110000111100000 +"
b111100 !
b111100 :
b1000000 O
b100000110000010001100011 H
b11100001111000011110000111100000 U
b11100001111000011110000111100000 }
b111100 y
b111000 x
b1000000 P
b1110 k
b1111 e
b100000110000010001100011 ,
b100000110000010001100011 ;
b0 -
1*
1D
#68000
0*
0D
#70000
b0xxxx00000000000000000000000000 /"
x'"
b11 w
0)"
x2"
x1
b0 6
b1111 A"
bx 0"
bx 5"
bx >"
bx00 $
bx00 J
b0xxxx00000000000000000000000000 3"
b0xxxx00 4"
x("
x&"
1I
b1 *"
b0 8
b11111 7
bx000 ."
bx 1"
bx 4
bx C
bx -"
b0xxxx00 2
b0xxxx00 +"
1>
b0 0
b0 %"
b11 :"
1="
b11 @"
b11111 {
b0 U
b0 }
bx000 3
bx000 ,"
b0 &
b0 M
b0 C"
1d
1""
x\
x[
1p
b11111111111111111111111111111000 j
b110100 Q
b1101111 N
b0 S
b0 #"
b111 F
b11111 W
b0 V
b0 ~
b0 Z
b0 ?"
b11001 X
b11001 |
b1111111 G
b111111111001 E
b11111111111111111111111111111001 9
b11111111111111111111111111100000 @
b11111111111111111111011111100000 5
b11111111111111111111111111111000 <
b11111111100111111111000000000000 A
xa
1c
0n
b110100 R
b11111111100111111111000001101111 H
b1000000 !
b1000000 :
b1000100 O
b1000000 B
b1000000 !"
bx -
b11111111100111111111000001101111 ,
b11111111100111111111000001101111 ;
b1111 k
b10000 e
b1000000 y
b111100 x
b110100 P
1*
1D
#72000
0*
0D
#74000
12"
11
b0 5"
b0 >"
b0 $
b0 J
0'"
b1 A"
0("
1&"
b0 1"
b0 4
b0 C
0I
b0 0"
b0 -"
0>
b0 ."
b0 /"
b0 :"
0="
b0 @"
b0 7
b0 {
0i
1l
b0 3
b0 ,"
b0 j
b0 3"
b0 4"
b111000 Q
b10011 N
b0 F
b0 W
b0 X
b0 |
b0 G
b0 E
b0 9
b0 @
b0 5
b0 <
b0 A
0a
0c
1\
0[
1d
1""
0p
b110100 !
b110100 :
b111000 O
b0 B
b0 !"
b0 2
b0 +"
b111000 R
b1 w
b10011 H
b110100 y
b1000000 x
b1000000 P
b11 z
1h
b10000 k
b10001 e
b1000000100101010000010100110011 ,
b1000000100101010000010100110011 ;
1*
1D
#76000
0*
0D
#78000
b11100001111000011110000111100000 B
b11100001111000011110000111100000 !"
b111100001111 0"
b11110000111100001111000011110000 8
b1111000011110000111100001111 /"
b11100001111000011110000111100000 $
b11100001111000011110000111100000 J
b11110000111100001111000011110000 6
b1111000011110000111100001111 3"
b11110000111100001111000011110000 4"
b10000 ."
b11100001111000011110000111100000 1"
b11100001111000011110000111100000 4
b11100001111000011110000111100000 C
b11110000111100001111000011110000 7
b0 -"
b11110000111100001111000011110000 2
b11110000111100001111000011110000 +"
b11110000111100001111000011110000 3
b11110000111100001111000011110000 ,"
b1000 {
b11110000111100001111000011110000 U
b11110000111100001111000011110000 }
b11110000111100001111000011110000 &
b11110000111100001111000011110000 M
b11110000111100001111000011110000 C"
b101 j
b111100 Q
b110011 N
b1000 S
b1000 #"
b1000 W
b11110000111100001111000011110000 V
b11110000111100001111000011110000 ~
b11110000111100001111000011110000 Z
b11110000111100001111000011110000 ?"
b101 X
b101 |
b101 E
b101 9
b1000 @
b1000 5
b1000000100000000100 <
b10101000000000000000000 A
0i
0\
1d
1""
1l
b111100 R
b10101000000010000110011 H
b111000 !
b111000 :
b111100 O
b11111111111100000000011100010011 -
b10101000000010000110011 ,
b10101000000010000110011 ;
b10010 e
0h
b1 z
b111000 y
b110100 x
b111001 P
1*
1D
#80000
0*
0D
#82000
b11 w
1I
1>
x)"
b111100001111000011110000111 0"
bx0000xxxx0000xxxx0000xxxxxxxx00 B
bx0000xxxx0000xxxx0000xxxxxxxx00 !"
bx000 0
bx000 %"
b0 ."
b11100001111000011110000111100000 8
b111100001111000011110000111 /"
0'"
12"
11
bx0000xxxx0000xxxx0000xxxx000000 $
bx0000xxxx0000xxxx0000xxxx000000 J
b1000000 Q
xc
xa
1n
b110 {
b11100001111000011110000111100000 3
b11100001111000011110000111100000 ,"
b11100001111000011110000111100000 &
b11100001111000011110000111100000 M
b11100001111000011110000111100000 C"
b1000 j
b11100001111000011110000111100000 6
b111100001111000011110000111 3"
b11100001111000011110000111100000 4"
0("
1&"
bx0000xxxx0000xxxx0000xxxx000000 1"
bx0000xxxx0000xxxx0000xxxx000000 4
bx0000xxxx0000xxxx0000xxxx000000 C
b1000000 R
b1100011 N
b110 W
b11100001111000011110000111100000 V
b11100001111000011110000111100000 ~
b11100001111000011110000111100000 Z
b11100001111000011110000111100000 ?"
b1000 X
b1000 |
b1000 E
b1000 9
b110000000000001000 <
b100000110000000000000000 A
xi
0d
0""
0l
b11100001111000011110000111100000 7
b0 -"
b11100001111000011110000111100000 2
b11100001111000011110000111100000 +"
b111100 !
b111100 :
b1000000 O
b100000110000010001100011 H
b11100001111000011110000111100000 U
b11100001111000011110000111100000 }
b111100 y
b111000 x
b1000000 P
b10001 k
b10011 e
b100000110000010001100011 ,
b100000110000010001100011 ;
b0 -
1*
1D
#84000
0*
0D
#86000
b0 0"
0I
b0 8
b0 /"
0)"
0>
b0 6
b0 3"
b0 4"
b0 $
b0 J
b0 0
b0 %"
b0 7
b0 2
b0 +"
b0 -"
b0 1"
b0 4
b0 C
0i
1\
1d
1""
1l
b0 {
b0 U
b0 }
b0 3
b0 ,"
b0 &
b0 M
b0 C"
b0 j
b10011 N
b0 S
b0 #"
b0 W
b0 V
b0 ~
b0 Z
b0 ?"
b0 X
b0 |
b0 E
b0 9
b0 @
b0 5
b0 <
b0 A
0a
0c
0n
b1000100 Q
b10011 H
b1 w
b1000000 !
b1000000 :
b1000100 O
b0 B
b0 !"
b1000100 R
bx -
b11111111100111111111000001101111 ,
b11111111100111111111000001101111 ;
b10010 k
b10100 e
1h
b11 z
b1000000 y
b111100 x
b111100 P
1*
1D
#88000
0*
0D
#90000
b1 A"
b0 B
b0 !"
b1000000000000000000000000000000 0"
b1 8
b10000000000000000000000000000000 /"
b0 5"
b0 >"
b1 6
b10000000000000000000000000000000 3"
b1 4"
1)"
b1 ."
b0 1"
b0 4
b0 C
b1 7
b0 -"
b1 2
b1 +"
b1000 0
b1000 %"
b1 3
b1 ,"
b1001000 Q
b1010 {
b1 U
b1 }
b1 &
b1 M
b1 C"
b10000001001 j
b1001000 R
b110011 N
b1010 S
b1010 #"
b1010 W
b1 V
b1 ~
b1 Z
b1 ?"
b1001 X
b1001 |
b100000 G
b10000001001 E
b10000001001 9
b10000001010 @
b10000001010 5
b1010000110000001000 <
b1000000100101010000000000000000 A
1i
0\
1d
1""
1l
b1000100 !
b1000100 :
b1001000 O
b1000000100101010000010100110011 H
b1000100 y
b1000000 x
b10001001001 P
b1 z
0h
b10101 e
b1000000100101010000010100110011 ,
b1000000100101010000010100110011 ;
b11111111111100000000011100010011 -
1*
1D
#92000
0*
0D
